BASE URL: http://ppctimeshare.hbbsolution.com/api/
error = 0 là thành công
1. recruitment
url: /recruitment
method: GET
{
  "error": 0,
  "data": [
    {
      "id": 1,
      "image": "http://ppctimeshare.hbbsolution.com/img/1484294993_banner_5.png",
      "tieu_de": "About PPC TIMESHARE",
      "noidung_gioithieu": "<p style=\"text-align:justify\"><span style=\"font-size:16px\"><strong>In addition, the PPC PPC assets established with the timeshare được hope is a bridge for customers and other investors participating in the field of timeshare, vacation exchange together, and flexibility in the use of resources Ownership production of each other not only in the Vietnam market in particular also in the US market đ&oacute;, Japan, South Korea, ...</strong></span></p>\r\n\r\n<p style=\"text-align:justify\"><span style=\"font-size:16px\"><strong>Timeshare PPC services are provided additional housekeeping staff makes all the home comfort and peace of mind of coal in the exchange of other property before and after the holiday.</strong></span></p>\r\n"
    }
  ]
}

2. benefit
url: /benefit
method: GET
{
  "error": 0,
  "data": {
    "id": 1,
    "title": "BENEFITS OF OWNING A TIMESHARE",
    "content": "Extra Vacations\r\nIf you want to get away but want to use your week for exchange, Extra Vacations offers weekly accommodation at amazing prices. \r\nThere is no limit to how many getaways you can book so share your membership benefits with your friends and family.\r\n-Exchange: The most significant benefit of PPC membership is the ability to exchange into one of the over affiliated resorts worldwide. Deposit the vacation time you own with PPC and then exchange for a vacation at another available resort.\r\n- Without anxiety for booking at hotels and resorts for holidays, just enjoy your PPC Timeshare Week ",
    "language": "en"
  }
}

3. faq
url: /faq
method: GET
{
  "error": 0,
  "data": [
    {
      "id": 1,
      "cauhoi": "<p><strong>How can I maximize the Deposit Trading Power of my week?</strong></p>\r\n",
      "cautraloi": "<p>The only component of trading power that you can control is the timing of when you deposit with PPC. You should deposit your week as soon as you decide not to return to your home resort. By depositing 9 months or more in advance of the start date of your week you will receive 100% of the available Deposit Trading Power, thereby helping you to increase the chances of obtaining your desired vacation.</p>\r\n"
    },
    {
      "id": 2,
      "cauhoi": "<p><strong>How is Exchange Trading Power calculated?</strong></p>\r\n",
      "cautraloi": "<p>In calculating Exchange Trading Power, PPC considers such factors as:</p>\r\n\r\n<ul>\r\n\t<li>the demand, supply and utilization of the exchange vacation, and the affiliated resort and geographic regions associated with the exchange vacation</li>\r\n\t<li>the seasonal designation of the exchange vacation</li>\r\n\t<li>the size and type of the unit (i.e., number of bedrooms, kitchen type and maximum/private occupancy of the physical unit)</li>\r\n\t<li>comment card scores that PPC compiles from comments submitted by members who visit the affiliated resort</li>\r\n\t<li>the date of Deposit and the start date of the Deposit.</li>\r\n</ul>\r\n"
    },
    {
      "id": 3,
      "cauhoi": "<p><strong>How is my Deposit Trading Power calculated?</strong></p>\r\n",
      "cautraloi": "<p>Your Deposit Trading Power is based on the following criteria:</p>\r\n\r\n<p>Demand, Supply, and Utilization: This is the biggest influence on your Deposit Trading Power, consisting of:</p>\r\n\r\n<p>Demand: The more subscribing members there are who want your deposit, the higher its Trading Power.</p>\r\n\r\n<p>Supply: How many similar deposits have been made?</p>\r\n\r\n<p>Utilization: How many deposits like yours have been confirmed by other members in the past?</p>\r\n\r\n<p>Unit size and type of your week. Is it a 2 room cabin, or an 8 room condominium?</p>\r\n\r\n<p>The timing of your deposit: This is the one factor that you can control! Deposit 2 years to 9 months in advance of the start date of your week to get 100% of the available Deposit Trading Power.</p>\r\n\r\n<p>Comment Cards: Comment Card scores that members like you fill out after going on vacation are also a component of Deposit Trading Power.</p>\r\n\r\n<p>Season: Depending on location, some times of year are worth more than others.</p>\r\n"
    },
    ...
  ]
}

4. introduce 
url: /introduce
method: GET
{
  "error": 0,
  "data": {
    "id": 1,
    "image": "http://api.ppctimeshare/img/1484294993_banner_5.png",
    "tieu_de": "About PPC TIMESHARE",
    "noidung_gioithieu": "<p style=\"text-align:justify\"><span style=\"font-size:16px\"><strong>In addition, the PPC PPC assets established with the timeshare được hope is a bridge for customers and other investors participating in the field of timeshare, vacation exchange together, and flexibility in the use of resources Ownership production of each other not only in the Vietnam market in particular also in the US market đ&oacute;, Japan, South Korea, ...</strong></span></p>\r\n\r\n<p style=\"text-align:justify\"><span style=\"font-size:16px\"><strong>Timeshare PPC services are provided additional housekeeping staff makes all the home comfort and peace of mind of coal in the exchange of other property before and after the holiday.</strong></span></p>\r\n"
  }
}

5. What is PPC Timeshare
url: /about
method: GET
{
  "error": 0,
  "data": {
    "title_about_1": "What is TimeShare?",
    "content_about_1": "Timeshare has many different forms, but the forms and scale of the timeshare is most commonly understood as shared vacation of premises by the landlord together.",
    "title_about_2": "Starting when and where?",
    "content_about_2": "The idea was triggered in early timeshare 20th century in Europe when families tend to buy holiday home together. These families have the same need to exchange its ownership in the same rest period, including renovation costs, as well as home improvement. For example, there are about 4 families with duration of use of 3-month / per year.",
    "id_about": 1,
    "about_language": "en"
  }
}


6. Resort Random
url: /resort/random
method: GET
{
  "error": 0,
  "data": [
    {
      "id": 33,
      "address": "Unnamed Road, Lộc Vĩnh, Phú Lộc, Thừa Thiên Huế, Việt Nam",
      "price": "5",
      "priority": 1,
      "lat": "16.3380707",
      "lng": "107.95383509999999",
      "introduce": "<p>Tọa lạc ở v&ugrave;ng bờ biển y&ecirc;n b&igrave;nh của Việt Nam, gần vịnh Lang C&ocirc; - miền Trung y&ecirc;u dấu, nơi đ&acirc;y ẩn m&igrave;nh với tập hợp chuỗi biệt thự k&egrave;m bể bơi tr&aacute;ng lệ. Bước v&agrave;o khu biệt thự nguy nga sẽ gi&uacute;p bạn gợi nhớ lại một qu&aacute; khứ của Việt Nam qua c&aacute;c triều đại với thiết kế nội thất vừa hiện đại vừa tinh tế.</p>\r\n\r\n<p>Bao quanh l&agrave; d&atilde;y n&uacute;i sinh th&aacute;i, c&ocirc;ng vi&ecirc;n quốc gia h&ugrave;ng vĩ v&agrave; những di sản văn h&oacute;a thế giới của UNESCO, bạn sẽ c&ograve;n được kh&aacute;m ph&aacute; phong c&aacute;ch đa văn h&oacute;a mang bản sắc Đ&ocirc;ng Dương, thư gi&atilde;n tr&ecirc;n bờ biển v&agrave; thỏa m&atilde;n sự tự do thoải m&aacute;i trong kh&ocirc;ng gian spa đầy niềm tự h&agrave;o bản sắc Ch&acirc;u &Aacute;.</p>\r\n\r\n<p>Tất cả c&oacute; tại Banyan Tree Lang C&ocirc; với dịch vụ nghĩ dưỡng v&agrave; kh&aacute;m ph&aacute; du lịch.</p>\r\n",
      "service": "",
      "equipment": "",
      "name": "BANYAN TREE LĂNG CÔ RESORT",
      "resort_type": "Resort",
      "images": [
        "http://ppctimeshare.hbbsolution.com/img/1487043262_h1.jpg",
        "http://ppctimeshare.hbbsolution.com/img/1487043262_h2.jpg",
        "http://ppctimeshare.hbbsolution.com/img/1487043262_h3.jpg",
        "http://ppctimeshare.hbbsolution.com/img/1487043262_h4.jpg",
        "http://ppctimeshare.hbbsolution.com/img/1487043262_h5.jpg",
        "http://ppctimeshare.hbbsolution.com/img/1487043262_h6.jpg",
        "http://ppctimeshare.hbbsolution.com/img/1487043262_h7.jpg",
        "http://ppctimeshare.hbbsolution.com/img/1487043262_h8.jpg",
        "http://ppctimeshare.hbbsolution.com/img/1487043262_h9.jpg"
      ],
	  "created_date": "2017-02-01",
      "sale": 0,
	  "introduce_full": "<p>Nằm tr&ecirc;n b&aacute;n đảo ri&ecirc;ng biệt của hồ Tuyền L&acirc;m, Sacom Resort l&agrave; một sự lựa chọn ho&agrave;n hảo cho những du kh&aacute;ch đang kiếm t&igrave;m một nơi nghỉ dưỡng l&yacute; tưởng, rời xa khỏi cuộc sống ồn &agrave;o, vội v&atilde; thường ng&agrave;y.<br />\r\nĐược x&acirc;y dựng v&agrave;o năm 2013, Sacom Resort nằm ở giữa khung cảnh y&ecirc;n tĩnh, thanh b&igrave;nh, hứa hẹn sẽ mang cho Qu&yacute; kh&aacute;ch những ph&uacute;t gi&acirc;y nghỉ dưỡng ấn tượng v&agrave; th&uacute; vị.</p>\r\n"
    },
    {
      "id": 36,
      "address": "43950, Selangor, Ma-lai-xi-a",
      "price": "5",
      "priority": 1,
      "lat": "2.60102",
      "lng": "101.68823900000007",
      "introduce": "<p>Golden Palm Tree over water villa resort stretches out from the Sepang coastline, almost a kilometer into the sheltered waters of the Straits of Malacca with 392 luxuriously appointed sea villas that shape a palm tree. The resort features a swimming pool, fitness center, library, TV room, a variety of dining venues and bars, boutiques, and a spa. This five-star property also sits in a perfect location that allows diving, water sports, excursions, snorkeling and many other recreational activities. - See more at: http://www.rci.com/resort-directory/resortDetails?resortCode=A540#sthash.DrVZVcaE.dpuf</p>\r\n",
      "service": "",
      "equipment": "",
      "name": "Damai Beach Resort",
      "resort_type": "Resort",
      "images": [
        "http://ppctimeshare.hbbsolution.com/img/1487047349_h7.jpg",
        "http://ppctimeshare.hbbsolution.com/img/1487047349_h8.jpg",
        "http://ppctimeshare.hbbsolution.com/img/1487047349_h9.jpg"
      ],
	  "created_date": "2017-02-01",
      "sale": 0,
	  "introduce_full": "<p>Nằm tr&ecirc;n b&aacute;n đảo ri&ecirc;ng biệt của hồ Tuyền L&acirc;m, Sacom Resort l&agrave; một sự lựa chọn ho&agrave;n hảo cho những du kh&aacute;ch đang kiếm t&igrave;m một nơi nghỉ dưỡng l&yacute; tưởng, rời xa khỏi cuộc sống ồn &agrave;o, vội v&atilde; thường ng&agrave;y.<br />\r\nĐược x&acirc;y dựng v&agrave;o năm 2013, Sacom Resort nằm ở giữa khung cảnh y&ecirc;n tĩnh, thanh b&igrave;nh, hứa hẹn sẽ mang cho Qu&yacute; kh&aacute;ch những ph&uacute;t gi&acirc;y nghỉ dưỡng ấn tượng v&agrave; th&uacute; vị.</p>\r\n"
    },
    ....
  ]
}

7. Resort near
url: /resort/nearby
method: GET
params: 
	lat=? 
	lng=?
	km=? (Bán kính km)

{
  "error": 0,
  "data": [
    {
      "id": 33,
      "address": "Unnamed Road, Lộc Vĩnh, Phú Lộc, Thừa Thiên Huế, Việt Nam",
      "price": "5",
      "priority": 1,
      "lat": "16.3380707",
      "lng": "107.95383509999999",
      "introduce": "<p>Tọa lạc ở v&ugrave;ng bờ biển y&ecirc;n b&igrave;nh của Việt Nam, gần vịnh Lang C&ocirc; - miền Trung y&ecirc;u dấu, nơi đ&acirc;y ẩn m&igrave;nh với tập hợp chuỗi biệt thự k&egrave;m bể bơi tr&aacute;ng lệ. Bước v&agrave;o khu biệt thự nguy nga sẽ gi&uacute;p bạn gợi nhớ lại một qu&aacute; khứ của Việt Nam qua c&aacute;c triều đại với thiết kế nội thất vừa hiện đại vừa tinh tế.</p>\r\n\r\n<p>Bao quanh l&agrave; d&atilde;y n&uacute;i sinh th&aacute;i, c&ocirc;ng vi&ecirc;n quốc gia h&ugrave;ng vĩ v&agrave; những di sản văn h&oacute;a thế giới của UNESCO, bạn sẽ c&ograve;n được kh&aacute;m ph&aacute; phong c&aacute;ch đa văn h&oacute;a mang bản sắc Đ&ocirc;ng Dương, thư gi&atilde;n tr&ecirc;n bờ biển v&agrave; thỏa m&atilde;n sự tự do thoải m&aacute;i trong kh&ocirc;ng gian spa đầy niềm tự h&agrave;o bản sắc Ch&acirc;u &Aacute;.</p>\r\n\r\n<p>Tất cả c&oacute; tại Banyan Tree Lang C&ocirc; với dịch vụ nghĩ dưỡng v&agrave; kh&aacute;m ph&aacute; du lịch.</p>\r\n",
      "service": "",
      "equipment": "",
	  "distance": "47",
      "name": "BANYAN TREE LĂNG CÔ RESORT",
      "resort_type": "Resort",
      "images": [
        "http://ppctimeshare.hbbsolution.com/img/1487043262_h1.jpg",
        "http://ppctimeshare.hbbsolution.com/img/1487043262_h2.jpg",
        "http://ppctimeshare.hbbsolution.com/img/1487043262_h3.jpg",
        "http://ppctimeshare.hbbsolution.com/img/1487043262_h4.jpg",
        "http://ppctimeshare.hbbsolution.com/img/1487043262_h5.jpg",
        "http://ppctimeshare.hbbsolution.com/img/1487043262_h6.jpg",
        "http://ppctimeshare.hbbsolution.com/img/1487043262_h7.jpg",
        "http://ppctimeshare.hbbsolution.com/img/1487043262_h8.jpg",
        "http://ppctimeshare.hbbsolution.com/img/1487043262_h9.jpg"
      ],
	  "created_date": "2017-02-01",
      "sale": 0,
	  "introduce_full": "<p>Nằm tr&ecirc;n b&aacute;n đảo ri&ecirc;ng biệt của hồ Tuyền L&acirc;m, Sacom Resort l&agrave; một sự lựa chọn ho&agrave;n hảo cho những du kh&aacute;ch đang kiếm t&igrave;m một nơi nghỉ dưỡng l&yacute; tưởng, rời xa khỏi cuộc sống ồn &agrave;o, vội v&atilde; thường ng&agrave;y.<br />\r\nĐược x&acirc;y dựng v&agrave;o năm 2013, Sacom Resort nằm ở giữa khung cảnh y&ecirc;n tĩnh, thanh b&igrave;nh, hứa hẹn sẽ mang cho Qu&yacute; kh&aacute;ch những ph&uacute;t gi&acirc;y nghỉ dưỡng ấn tượng v&agrave; th&uacute; vị.</p>\r\n"
    },
    {
      "id": 36,
      "address": "43950, Selangor, Ma-lai-xi-a",
      "price": "5",
      "priority": 1,
      "lat": "2.60102",
      "lng": "101.68823900000007",
      "introduce": "<p>Golden Palm Tree over water villa resort stretches out from the Sepang coastline, almost a kilometer into the sheltered waters of the Straits of Malacca with 392 luxuriously appointed sea villas that shape a palm tree. The resort features a swimming pool, fitness center, library, TV room, a variety of dining venues and bars, boutiques, and a spa. This five-star property also sits in a perfect location that allows diving, water sports, excursions, snorkeling and many other recreational activities. - See more at: http://www.rci.com/resort-directory/resortDetails?resortCode=A540#sthash.DrVZVcaE.dpuf</p>\r\n",
      "service": "",
      "equipment": "",
	  "distance": "0",
      "name": "Damai Beach Resort",
      "resort_type": "Resort",
      "images": [
        "http://ppctimeshare.hbbsolution.com/img/1487047349_h7.jpg",
        "http://ppctimeshare.hbbsolution.com/img/1487047349_h8.jpg",
        "http://ppctimeshare.hbbsolution.com/img/1487047349_h9.jpg"
      ],
	  "created_date": "2017-02-01",
      "sale": 0,
	  "introduce_full": "<p>Nằm tr&ecirc;n b&aacute;n đảo ri&ecirc;ng biệt của hồ Tuyền L&acirc;m, Sacom Resort l&agrave; một sự lựa chọn ho&agrave;n hảo cho những du kh&aacute;ch đang kiếm t&igrave;m một nơi nghỉ dưỡng l&yacute; tưởng, rời xa khỏi cuộc sống ồn &agrave;o, vội v&atilde; thường ng&agrave;y.<br />\r\nĐược x&acirc;y dựng v&agrave;o năm 2013, Sacom Resort nằm ở giữa khung cảnh y&ecirc;n tĩnh, thanh b&igrave;nh, hứa hẹn sẽ mang cho Qu&yacute; kh&aacute;ch những ph&uacute;t gi&acirc;y nghỉ dưỡng ấn tượng v&agrave; th&uacute; vị.</p>\r\n"
    },
    ....
  ]
}

8. New Resort
url: /resort/new
method: GET
{
  "error": 0,
  "data": [
    {
      "id": 33,
      "address": "Unnamed Road, Lộc Vĩnh, Phú Lộc, Thừa Thiên Huế, Việt Nam",
      "price": "5",
      "priority": 1,
      "lat": "16.3380707",
      "lng": "107.95383509999999",
      "introduce": "<p>Tọa lạc ở v&ugrave;ng bờ biển y&ecirc;n b&igrave;nh của Việt Nam, gần vịnh Lang C&ocirc; - miền Trung y&ecirc;u dấu, nơi đ&acirc;y ẩn m&igrave;nh với tập hợp chuỗi biệt thự k&egrave;m bể bơi tr&aacute;ng lệ. Bước v&agrave;o khu biệt thự nguy nga sẽ gi&uacute;p bạn gợi nhớ lại một qu&aacute; khứ của Việt Nam qua c&aacute;c triều đại với thiết kế nội thất vừa hiện đại vừa tinh tế.</p>\r\n\r\n<p>Bao quanh l&agrave; d&atilde;y n&uacute;i sinh th&aacute;i, c&ocirc;ng vi&ecirc;n quốc gia h&ugrave;ng vĩ v&agrave; những di sản văn h&oacute;a thế giới của UNESCO, bạn sẽ c&ograve;n được kh&aacute;m ph&aacute; phong c&aacute;ch đa văn h&oacute;a mang bản sắc Đ&ocirc;ng Dương, thư gi&atilde;n tr&ecirc;n bờ biển v&agrave; thỏa m&atilde;n sự tự do thoải m&aacute;i trong kh&ocirc;ng gian spa đầy niềm tự h&agrave;o bản sắc Ch&acirc;u &Aacute;.</p>\r\n\r\n<p>Tất cả c&oacute; tại Banyan Tree Lang C&ocirc; với dịch vụ nghĩ dưỡng v&agrave; kh&aacute;m ph&aacute; du lịch.</p>\r\n",
      "service": "",
      "equipment": "",
      "name": "BANYAN TREE LĂNG CÔ RESORT",
      "resort_type": "Resort",
      "images": [
        "http://ppctimeshare.hbbsolution.com/img/1487043262_h1.jpg",
        "http://ppctimeshare.hbbsolution.com/img/1487043262_h2.jpg",
        "http://ppctimeshare.hbbsolution.com/img/1487043262_h3.jpg",
        "http://ppctimeshare.hbbsolution.com/img/1487043262_h4.jpg",
        "http://ppctimeshare.hbbsolution.com/img/1487043262_h5.jpg",
        "http://ppctimeshare.hbbsolution.com/img/1487043262_h6.jpg",
        "http://ppctimeshare.hbbsolution.com/img/1487043262_h7.jpg",
        "http://ppctimeshare.hbbsolution.com/img/1487043262_h8.jpg",
        "http://ppctimeshare.hbbsolution.com/img/1487043262_h9.jpg"
      ],
	  "created_date": "2017-02-01",
      "sale": 0,
	  "introduce_full": "<p>Nằm tr&ecirc;n b&aacute;n đảo ri&ecirc;ng biệt của hồ Tuyền L&acirc;m, Sacom Resort l&agrave; một sự lựa chọn ho&agrave;n hảo cho những du kh&aacute;ch đang kiếm t&igrave;m một nơi nghỉ dưỡng l&yacute; tưởng, rời xa khỏi cuộc sống ồn &agrave;o, vội v&atilde; thường ng&agrave;y.<br />\r\nĐược x&acirc;y dựng v&agrave;o năm 2013, Sacom Resort nằm ở giữa khung cảnh y&ecirc;n tĩnh, thanh b&igrave;nh, hứa hẹn sẽ mang cho Qu&yacute; kh&aacute;ch những ph&uacute;t gi&acirc;y nghỉ dưỡng ấn tượng v&agrave; th&uacute; vị.</p>\r\n"
    },
    {
      "id": 36,
      "address": "43950, Selangor, Ma-lai-xi-a",
      "price": "5",
      "priority": 1,
      "lat": "2.60102",
      "lng": "101.68823900000007",
      "introduce": "<p>Golden Palm Tree over water villa resort stretches out from the Sepang coastline, almost a kilometer into the sheltered waters of the Straits of Malacca with 392 luxuriously appointed sea villas that shape a palm tree. The resort features a swimming pool, fitness center, library, TV room, a variety of dining venues and bars, boutiques, and a spa. This five-star property also sits in a perfect location that allows diving, water sports, excursions, snorkeling and many other recreational activities. - See more at: http://www.rci.com/resort-directory/resortDetails?resortCode=A540#sthash.DrVZVcaE.dpuf</p>\r\n",
      "service": "",
      "equipment": "",
      "name": "Damai Beach Resort",
      "resort_type": "Resort",
      "images": [
        "http://ppctimeshare.hbbsolution.com/img/1487047349_h7.jpg",
        "http://ppctimeshare.hbbsolution.com/img/1487047349_h8.jpg",
        "http://ppctimeshare.hbbsolution.com/img/1487047349_h9.jpg"
      ],
	  "created_date": "2017-02-01",
      "sale": 0,
	  "introduce_full": "<p>Nằm tr&ecirc;n b&aacute;n đảo ri&ecirc;ng biệt của hồ Tuyền L&acirc;m, Sacom Resort l&agrave; một sự lựa chọn ho&agrave;n hảo cho những du kh&aacute;ch đang kiếm t&igrave;m một nơi nghỉ dưỡng l&yacute; tưởng, rời xa khỏi cuộc sống ồn &agrave;o, vội v&atilde; thường ng&agrave;y.<br />\r\nĐược x&acirc;y dựng v&agrave;o năm 2013, Sacom Resort nằm ở giữa khung cảnh y&ecirc;n tĩnh, thanh b&igrave;nh, hứa hẹn sẽ mang cho Qu&yacute; kh&aacute;ch những ph&uacute;t gi&acirc;y nghỉ dưỡng ấn tượng v&agrave; th&uacute; vị.</p>\r\n"
    },
    ....
  ]
}


9. ALl resort
method: GET
url: /resort/all
params: 
page=?
country_id=?
city_id=?
type_id=?
search_by=? (1 = new, 2 = sale)
{
  "total": 6,
  "per_page": 2,
  "current_page": 2,
  "last_page": 3,
  "next_page_url": "http://api.ppctimeshare/resort/all?page=3",
  "prev_page_url": "http://api.ppctimeshare/resort/all?page=1",
  "from": 3,
  "to": 4,
  "data": [
    {
      "id": 32,
      "address": "Tuyền Lâm, Phường 4, Tp. Đà Lạt, Lâm Đồng, Việt Nam",
      "price": "5",
      "priority": 2,
      "lat": "11.8840813",
      "lng": "108.43100200000003",
      "introduce": "<p>Nằm tr&ecirc;n b&aacute;n đảo ri&ecirc;ng biệt của hồ Tuyền L&acirc;m, Sacom Resort l&agrave; một sự lựa chọn ho&agrave;n hảo cho những du kh&aacute;ch đang kiếm t&igrave;m một nơi nghỉ dưỡng l&yacute; tưởng, rời xa khỏi cuộc sống ồn &agrave;o, vội v&atilde; thường ng&agrave;y.<br />\r\nĐược x&acirc;y dựng v&agrave;o năm 2013, Sacom Resort nằm ở giữa khung cảnh y&ecirc;n tĩnh, thanh b&igrave;nh, hứa hẹn sẽ mang cho Qu&yacute; kh&aacute;ch những ph&uacute;t gi&acirc;y nghỉ dưỡng ấn tượng v&agrave; th&uacute; vị.</p>\r\n",
      "service": "<p>Sacom Resort c&oacute; 8 căn biệt thự sang trọng gồm 55 ph&ograve;ng được thiết kế theo phong c&aacute;ch Ch&acirc;u &Acirc;u v&agrave; set up với ti&ecirc;u chuẩn 4 sao. &nbsp;B&ecirc;n cạnh đ&oacute;, Nh&agrave; h&agrave;ng Resort với đội ngũ nh&acirc;n vi&ecirc;n chuy&ecirc;n nghiệp, th&acirc;n thiện c&ugrave;ng với c&aacute;c đầu bếp c&oacute; tiếng của th&agrave;nh phố hoa sẽ đem đến cho Qu&yacute; Kh&aacute;ch những trải nghiệm ẩm thực kh&oacute; qu&ecirc;n. &nbsp;</p>\r\n",
      "equipment": "<p>- 55 ph&ograve;ng nghỉ sang trọng, đặc biệt l&agrave; c&aacute;c ph&ograve;ng gia đ&igrave;nh d&agrave;nh cho 4-6 kh&aacute;ch &nbsp;&nbsp;<br />\r\n- 1 Nh&agrave; h&agrave;ng<br />\r\n- Chỗ đậu xe miễn ph&iacute;<br />\r\n- Xe đạp địa h&igrave;nh người lớn &nbsp;&amp; trẻ em<br />\r\n- Dịch vụ giặt ủi<br />\r\n- Dịch vụ b&aacute;o thức<br />\r\n- Dịch vụ đổi tiền<br />\r\n- Dịch vu đưa đ&oacute;n s&acirc;n bay<br />\r\n- Dịch vụ thu&ecirc; xe<br />\r\n- Ph&ograve;ng tập thể dục<br />\r\n- Billards<br />\r\n- Dịch vụ phục vụ ăn uống tại ph&ograve;ng<br />\r\n- Dịch vụ gia đ&igrave;nh bao gồm giường phụ/ cũi trẻ em<br />\r\n- Ph&ograve;ng kh&ocirc;ng h&uacute;t thuốc<br />\r\n- Dịch vụ xe đưa đ&oacute;n trung t&acirc;m th&agrave;nh phố<br />\r\n- Dịch vụ xe điện tham quan Sacom Resort</p>\r\n",
      "name": "SACOM TUYỀN LÂM",
      "resort_type": "Resort",
      "images": [
        "http://api.ppctimeshare/img/1487043198_h1.jpg",
        "http://api.ppctimeshare/img/1487043198_h2.jpg",
        "http://api.ppctimeshare/img/1487043198_h3.jpg",
        "http://api.ppctimeshare/img/1487043198_h4.jpg",
        "http://api.ppctimeshare/img/1487043198_h5.jpg",
        "http://api.ppctimeshare/img/1487043198_h6.jpg",
        "http://api.ppctimeshare/img/1487043198_h7.jpg",
        "http://api.ppctimeshare/img/1487043198_h8.jpg",
        "http://api.ppctimeshare/img/1487043198_h9.jpg"
      ],
	  "created_date": "2017-02-01",
      "sale": 0,
	  "introduce_full": "<p>Nằm tr&ecirc;n b&aacute;n đảo ri&ecirc;ng biệt của hồ Tuyền L&acirc;m, Sacom Resort l&agrave; một sự lựa chọn ho&agrave;n hảo cho những du kh&aacute;ch đang kiếm t&igrave;m một nơi nghỉ dưỡng l&yacute; tưởng, rời xa khỏi cuộc sống ồn &agrave;o, vội v&atilde; thường ng&agrave;y.<br />\r\nĐược x&acirc;y dựng v&agrave;o năm 2013, Sacom Resort nằm ở giữa khung cảnh y&ecirc;n tĩnh, thanh b&igrave;nh, hứa hẹn sẽ mang cho Qu&yacute; kh&aacute;ch những ph&uacute;t gi&acirc;y nghỉ dưỡng ấn tượng v&agrave; th&uacute; vị.</p>\r\n"
    },
    {
      "id": 33,
      "address": "Unnamed Road, Lộc Vĩnh, Phú Lộc, Thừa Thiên Huế, Việt Nam",
      "price": "5",
      "priority": 1,
      "lat": "16.3380707",
      "lng": "107.95383509999999",
      "introduce": "<p>Tọa lạc ở v&ugrave;ng bờ biển y&ecirc;n b&igrave;nh của Việt Nam, gần vịnh Lang C&ocirc; - miền Trung y&ecirc;u dấu, nơi đ&acirc;y ẩn m&igrave;nh với tập hợp chuỗi biệt thự k&egrave;m bể bơi tr&aacute;ng lệ. Bước v&agrave;o khu biệt thự nguy nga sẽ gi&uacute;p bạn gợi nhớ lại một qu&aacute; khứ của Việt Nam qua c&aacute;c triều đại với thiết kế nội thất vừa hiện đại vừa tinh tế.</p>\r\n\r\n<p>Bao quanh l&agrave; d&atilde;y n&uacute;i sinh th&aacute;i, c&ocirc;ng vi&ecirc;n quốc gia h&ugrave;ng vĩ v&agrave; những di sản văn h&oacute;a thế giới của UNESCO, bạn sẽ c&ograve;n được kh&aacute;m ph&aacute; phong c&aacute;ch đa văn h&oacute;a mang bản sắc Đ&ocirc;ng Dương, thư gi&atilde;n tr&ecirc;n bờ biển v&agrave; thỏa m&atilde;n sự tự do thoải m&aacute;i trong kh&ocirc;ng gian spa đầy niềm tự h&agrave;o bản sắc Ch&acirc;u &Aacute;.</p>\r\n\r\n<p>Tất cả c&oacute; tại Banyan Tree Lang C&ocirc; với dịch vụ nghĩ dưỡng v&agrave; kh&aacute;m ph&aacute; du lịch.</p>\r\n",
      "service": "",
      "equipment": "",
      "name": "BANYAN TREE LĂNG CÔ RESORT",
      "resort_type": "Resort",
      "images": [
        "http://api.ppctimeshare/img/1487043262_h1.jpg",
        "http://api.ppctimeshare/img/1487043262_h2.jpg",
        "http://api.ppctimeshare/img/1487043262_h3.jpg",
        "http://api.ppctimeshare/img/1487043262_h4.jpg",
        "http://api.ppctimeshare/img/1487043262_h5.jpg",
        "http://api.ppctimeshare/img/1487043262_h6.jpg",
        "http://api.ppctimeshare/img/1487043262_h7.jpg",
        "http://api.ppctimeshare/img/1487043262_h8.jpg",
        "http://api.ppctimeshare/img/1487043262_h9.jpg"
      ],
	  "created_date": "2017-02-01",
      "sale": 0,
	  "introduce_full": "<p>Nằm tr&ecirc;n b&aacute;n đảo ri&ecirc;ng biệt của hồ Tuyền L&acirc;m, Sacom Resort l&agrave; một sự lựa chọn ho&agrave;n hảo cho những du kh&aacute;ch đang kiếm t&igrave;m một nơi nghỉ dưỡng l&yacute; tưởng, rời xa khỏi cuộc sống ồn &agrave;o, vội v&atilde; thường ng&agrave;y.<br />\r\nĐược x&acirc;y dựng v&agrave;o năm 2013, Sacom Resort nằm ở giữa khung cảnh y&ecirc;n tĩnh, thanh b&igrave;nh, hứa hẹn sẽ mang cho Qu&yacute; kh&aacute;ch những ph&uacute;t gi&acirc;y nghỉ dưỡng ấn tượng v&agrave; th&uacute; vị.</p>\r\n"
    },
	...
  ]
}

10. Countries
method: GET
url: /countries
{
  "error": 0,
  "data": [
    {
      "id": 1,
      "name": "Geogria"
    },
    {
      "id": 2,
      "name": "North Carolina"
    },
    ....
  ]
}

11. City
method: GET
url: /provinces
params: country_id=?
{
  "error": 0,
  "data": [
    {
      "id": 1,
      "name": "Ho Chi Minh"
    },
    {
      "id": 2,
      "name": "Ha Noi"
    },
    ....
  ]
}

12. Booking
url: /booking
method: POST
params: 
id_user=?
id_resort=?
note=?
start_date=?
end_date=?
adults=?
childs=?
room=?
token=?

{
  "error": true,
  "message": "app.booking_success"
}

{
  "error": 1,
  "message": "app.booking_failed"
}

13. Type resort
method: GET
url: /types

{
  "error": 0,
  "data": [
    {
      "id": 1,
      "name": "Resort"
    },
    {
      "id": 2,
      "name": "Holiday Homes"
    }
  ]
}

14. Send Request
url: /contact
method: POST
params: 
ten_lienhe = ?
sdt_lienhe = ?
email_lienhe = ?
title_lienhe = ?
conten_lienhe = ?

{
  "error": 0,
  "message": "app.send_request_success"
}

15. Search
url: /resort/search
params:
q=?
result giống resort all

15. Danh sách Booking
url: /bookings
method: GET
params: id=?
{
  "error": 0,
  "data": [
    {
      "start_date": "2017-02-17",
      "end_date": "2017-02-17",
      "adults": 1,
      "childs": 1,
      "room": 1,
      "created_at": "2017-02-27",
      "status": "app.booking_new",
      "total_price": "113,910₫",
      "resort_price": "5",
      "discount": "0",
      "name": "SACOM TUYỀN LÂM",
      "id_resort": 32
    },
    {
      "start_date": "2017-02-17",
      "end_date": "2017-02-17",
      "adults": 1,
      "childs": 1,
      "room": 1,
      "created_at": "2017-02-27",
      "status": "app.booking_new",
      "total_price": "1,959,252₫",
      "resort_price": "91",
      "discount": "5",
      "name": "Legros Mall",
      "id_resort": 95
    }
  ]
}

16. Special offers:
Url: /deal
